doc/tb_clock.vcd
$date
  Mon Mar 28 21:11:17 2016
$end
$version
  GHDL v0
$end
$timescale
  1 fs
$end
$var reg 1 ! q_int $end
$scope module clk $end
$var reg 1 " q $end
$var reg 1 # q_int $end
$upscope $end
$enddefinitions $end
#0
0!
0"
0#
#1000000
1!
1"
1#
#2000000
0!
0"
0#
#3000000
1!
1"
1#
#4000000
0!
0"
0#
#5000000
1!
1"
1#
#6000000
0!
0"
0#
#7000000
1!
1"
1#
#8000000
0!
0"
0#
#9000000
1!
1"
1#
#10000000
0!
0"
0#
